<?xml version="1.0" encoding="UTF-8"?>
<session version="1.0">
<refactoring comment="Copy element &apos;Parking.java&apos; to &apos;Learning reflexion/src&apos;&#x0D;&#x0A;- Original project: &apos;Learning reflexion&apos;&#x0D;&#x0A;- Destination element: &apos;Learning reflexion/src&apos;&#x0D;&#x0A;- Original element: &apos;Cars.Parking.java&apos;" description="Copy compilation unit" destination="/src" element1="/src&lt;Cars{Parking.java" files="0" flags="589830" folders="0" id="org.eclipse.jdt.ui.copy" policy="org.eclipse.jdt.ui.copyResources" stamp="1588260595154" units="1" version="1.0"/>
</session>